{"items":[{"id":"542a2f9e-0b1e-41a7-b10d-f87924247123","slug":"real-load-study-fixture-pw-w0-r0-motw6sp7-r6azwf","title":"Real Load Study Fixture pw-w0-r0-motw6sp7-r6azwf","excerpt":"Excerpt for Real Load Study Fixture pw-w0-r0-motw6sp7-r6azwf","tags":["playwright-fixture","pw-w0-r0-motw6sp7-r6azwf"],"coverUrl":"","publishedAt":"2026-05-06T10:06:10.139009+00:00"},{"id":"41fc2485-400f-4234-8347-d3b8f2bebc43","slug":"load-test-study-fixture-pw-w0-r0-motw6qql-wna4qh","title":"Load Test Study Fixture pw-w0-r0-motw6qql-wna4qh","excerpt":"Excerpt for Load Test Study Fixture pw-w0-r0-motw6qql-wna4qh","tags":["playwright-fixture","pw-w0-r0-motw6qql-wna4qh"],"coverUrl":"","publishedAt":"2026-05-06T10:06:07.6089+00:00"},{"id":"cd5b8654-466d-4cd6-a441-9a2dc7de4ba4","slug":"real-load-current-heavy-study-20260506","title":"Real Load Current Heavy Study 20260506","excerpt":"Heavy current Study read target for corrected Real Backend Test.","tags":["real-load","heavy","current"],"coverUrl":"","publishedAt":"2026-05-05T17:02:28.360898+00:00"},{"id":"3664262f-d1fe-4926-9f9d-3ec54ed063ae","slug":"real-load-study-fixture-pw-w0-r0-mosttmop-oxw9m0","title":"Real Load Study Fixture pw-w0-r0-mosttmop-oxw9m0","excerpt":"Excerpt for Real Load Study Fixture pw-w0-r0-mosttmop-oxw9m0","tags":["playwright-fixture","pw-w0-r0-mosttmop-oxw9m0"],"coverUrl":"","publishedAt":"2026-05-05T16:12:10.407193+00:00"},{"id":"896e7d80-b771-4027-bd7d-0bac9e469335","slug":"load-test-study-fixture-pw-w0-r0-mosttkk8-otblr1","title":"Load Test Study Fixture pw-w0-r0-mosttkk8-otblr1","excerpt":"Excerpt for Load Test Study Fixture pw-w0-r0-mosttkk8-otblr1","tags":["playwright-fixture","pw-w0-r0-mosttkk8-otblr1"],"coverUrl":"","publishedAt":"2026-05-05T16:12:07.668614+00:00"},{"id":"321852b9-57ad-434d-971e-4eb868467716","slug":"saved-blog-1777736064656","title":"Saved blog 1777736064656","excerpt":"","tags":["alpha","beta","gamma","delta","epsilon"],"coverUrl":"","publishedAt":"2026-05-02T15:33:48.630753+00:00"},{"id":"33f45def-502b-4e5c-b55b-9a826defad3b","slug":"admin-blog-badges-1777736023347-579","title":"Admin Blog Badges 1777736023347 579","excerpt":"","tags":["alpha","beta"],"coverUrl":"","publishedAt":"2026-05-02T15:33:44.676744+00:00"},{"id":"5e3be7c2-921f-4176-b5ad-e772590add4b","slug":"semantic-notion-state-pw-w0-r0-mooi3x03-stuz8j","title":"Semantic Notion State pw-w0-r0-mooi3x03-stuz8j","excerpt":"","tags":["playwright-fixture","pw-w0-r0-mooi3x03-stuz8j"],"coverUrl":"","publishedAt":"2026-05-02T15:33:10.267418+00:00"},{"id":"913076e4-4561-4c35-9264-fcc8dd2b37ea","slug":"notion-visual-state-pw-w0-r0-mooi3kz9-dd2vv2","title":"Notion Visual State pw-w0-r0-mooi3kz9-dd2vv2","excerpt":"","tags":["playwright-fixture","pw-w0-r0-mooi3kz9-dd2vv2"],"coverUrl":"","publishedAt":"2026-05-02T15:32:54.658157+00:00"},{"id":"92b246dc-9d3b-4c87-b1e6-8ffafca77bec","slug":"notion-visual-highlight-pw-w0-r0-mooi3crz-pjqg21","title":"Notion Visual Highlight pw-w0-r0-mooi3crz-pjqg21","excerpt":"Excerpt for Notion Visual Highlight pw-w0-r0-mooi3crz-pjqg21","tags":["playwright-fixture","pw-w0-r0-mooi3crz-pjqg21"],"coverUrl":"","publishedAt":"2026-05-02T15:32:44.046689+00:00"},{"id":"9c8c6561-9bde-4543-8d7f-4a138d9b96e6","slug":"notion-shortcut-save-pw-w0-r0-mooi0b7b-es77gz-ctrl-s","title":"Notion Shortcut Save pw-w0-r0-mooi0b7b-es77gz ctrl-s","excerpt":"","tags":["playwright-fixture","pw-w0-r0-mooi0b7b-es77gz"],"coverUrl":"","publishedAt":"2026-05-02T15:30:22.021448+00:00"},{"id":"96c8f99f-bb5d-42b8-8194-a71fae689da5","slug":"notion-info-panel-pw-w0-r0-mooi073k-26wqha","title":"Notion Info Panel pw-w0-r0-mooi073k-26wqha","excerpt":"Excerpt for Notion Info Panel pw-w0-r0-mooi073k-26wqha","tags":["playwright-fixture","pw-w0-r0-mooi073k-26wqha"],"coverUrl":"","publishedAt":"2026-05-02T15:30:16.722985+00:00"}],"page":1,"pageSize":12,"totalItems":5859,"totalPages":489}