{
  "items": [
    {
      "id": "079bda73-24b9-4bf7-8c75-0e6b8c903657",
      "slug": "real-load-work-fixture-pw-w0-r0-motw6so0-y37u5m",
      "title": "Real Load Work Fixture pw-w0-r0-motw6so0-y37u5m",
      "excerpt": "Real backend work target fixture body.",
      "category": "playwright-fixture",
      "period": "",
      "tags": [
        "playwright-fixture",
        "pw-w0-r0-motw6so0-y37u5m"
      ],
      "thumbnailUrl": "",
      "iconUrl": "",
      "publishedAt": "2026-05-06T10:06:10.097448+00:00"
    },
    {
      "id": "dc026705-629b-40a7-a14c-1821db134d2e",
      "slug": "load-test-work-fixture-pw-w0-r0-motw6qly-ou3t0o",
      "title": "Load Test Work Fixture pw-w0-r0-motw6qly-ou3t0o",
      "excerpt": "Work read load fixture body.",
      "category": "playwright-fixture",
      "period": "",
      "tags": [
        "playwright-fixture",
        "pw-w0-r0-motw6qly-ou3t0o"
      ],
      "thumbnailUrl": "",
      "iconUrl": "",
      "publishedAt": "2026-05-06T10:06:07.50611+00:00"
    },
    {
      "id": "f0ebe3d5-590f-4ce7-aa99-a1a7036bcc91",
      "slug": "real-load-current-heavy-work-20260506",
      "title": "Real Load Current Heavy Work 20260506",
      "excerpt": "Heavy current Work read target for corrected Real Backend Test.",
      "category": "real-load",
      "period": "2026",
      "tags": [
        "real-load",
        "heavy",
        "current"
      ],
      "thumbnailUrl": "https://img.youtube.com/vi/dQw4w9WgXcQ/hqdefault.jpg",
      "iconUrl": "",
      "publishedAt": "2026-05-05T17:02:28.360898+00:00"
    },
    {
      "id": "91a105e5-7c1f-498a-a4b4-ef4a6560f23e",
      "slug": "real-load-work-fixture-pw-w0-r0-mosttmmj-18lzeh",
      "title": "Real Load Work Fixture pw-w0-r0-mosttmmj-18lzeh",
      "excerpt": "Real backend work target fixture body.",
      "category": "playwright-fixture",
      "period": "",
      "tags": [
        "playwright-fixture",
        "pw-w0-r0-mosttmmj-18lzeh"
      ],
      "thumbnailUrl": "",
      "iconUrl": "",
      "publishedAt": "2026-05-05T16:12:10.340219+00:00"
    },
    {
      "id": "d334d346-c616-4798-89cb-6118a85bb459",
      "slug": "load-test-work-fixture-pw-w0-r0-mosttkfm-z3dmuq",
      "title": "Load Test Work Fixture pw-w0-r0-mosttkfm-z3dmuq",
      "excerpt": "Work read load fixture body.",
      "category": "playwright-fixture",
      "period": "",
      "tags": [
        "playwright-fixture",
        "pw-w0-r0-mosttkfm-z3dmuq"
      ],
      "thumbnailUrl": "",
      "iconUrl": "",
      "publishedAt": "2026-05-05T16:12:07.560878+00:00"
    },
    {
      "id": "5703a1c1-8ca9-4dec-945b-ed09b47c2749",
      "slug": "video-only-refresh-1777736262511",
      "title": "Video-only Refresh 1777736262511",
      "excerpt": "video only refresh body",
      "category": "video",
      "period": "",
      "tags": [],
      "thumbnailUrl": "/media/work-thumbnails/abf3c888efa640b281ed07db312bde78.jpg",
      "iconUrl": "",
      "publishedAt": "2026-05-02T15:37:43.619637+00:00"
    },
    {
      "id": "a1178f59-e8f5-4f72-9908-ca7ac00ecff6",
      "slug": "public-redirect-work-1777736253325",
      "title": "Public Redirect Work 1777736253325",
      "excerpt": "Redirect create body",
      "category": "redirect",
      "period": "",
      "tags": [],
      "thumbnailUrl": "",
      "iconUrl": "",
      "publishedAt": "2026-05-02T15:37:35.303037+00:00"
    },
    {
      "id": "7b73ac57-e3b4-4a62-9db1-bc8443905e60",
      "slug": "immediate-thumbnail-persist-1777736250028",
      "title": "Immediate Thumbnail Persist 1777736250028",
      "excerpt": "Thumbnail persistence body",
      "category": "video",
      "period": "",
      "tags": [],
      "thumbnailUrl": "/media/work-thumbnails/b5c63b8a728f4af6a1d80e88d38183ca.jpg",
      "iconUrl": "",
      "publishedAt": "2026-05-02T15:37:31.09773+00:00"
    },
    {
      "id": "da2c1025-31cd-45f5-8a10-d609a10d9660",
      "slug": "inline-public-work-video-1777736246597",
      "title": "Inline Public Work Video 1777736246597",
      "excerpt": "Public inline create video body",
      "category": "video",
      "period": "",
      "tags": [],
      "thumbnailUrl": "/media/work-thumbnails/e65cd7ef3dc94fff99ae498f6256bd63.jpg",
      "iconUrl": "",
      "publishedAt": "2026-05-02T15:37:28.405698+00:00"
    },
    {
      "id": "b252aaa2-a4b9-4b7c-8400-294c05e626f4",
      "slug": "inline-public-work-1777736243362",
      "title": "Inline Public Work 1777736243362",
      "excerpt": "Public inline create body",
      "category": "inline",
      "period": "",
      "tags": [],
      "thumbnailUrl": "",
      "iconUrl": "",
      "publishedAt": "2026-05-02T15:37:25.04851+00:00"
    },
    {
      "id": "2409d125-2e57-4000-9d14-43e89de2d16d",
      "slug": "green-pixel-thumb-1777736241034",
      "title": "Green Pixel Thumb 1777736241034",
      "excerpt": "Green-only pixel verification",
      "category": "video",
      "period": "",
      "tags": [],
      "thumbnailUrl": "/media/work-thumbnails/563c1cf2884f4b9bb475f480ccf2ec17.jpg",
      "iconUrl": "",
      "publishedAt": "2026-05-02T15:37:22.136979+00:00"
    },
    {
      "id": "98a0e6f5-1ba9-4a07-9611-22a142dbf95c",
      "slug": "green-video-thumb-1777736237403",
      "title": "Green Video Thumb 1777736237403",
      "excerpt": "Green-only video thumbnail verification",
      "category": "video",
      "period": "",
      "tags": [],
      "thumbnailUrl": "/media/work-thumbnails/5f41d8132d4f4c93ab44106e250dc60c.jpg",
      "iconUrl": "",
      "publishedAt": "2026-05-02T15:37:18.878728+00:00"
    }
  ],
  "page": 1,
  "pageSize": 12,
  "totalItems": 2471,
  "totalPages": 206
}